(;FF[4]GM[1]SZ[9]EV[Introduction]
AW[da][db][dc][dd][if][hf][gf][ff][ef][df][de]AB[ca][cb][cc][cd][ce][cf][cg][dg][eg][fg][gg][hg][ig]MA[gc]TR[bh]PL[B]
C[Who won?]
(;B[bh]C[Correct!]TE[1]
)(;B[gc]C[Count Again!]
))
