(;FF[4]GM[1]SZ[9]EV[Introduction]
AB[bf][cf][df][af][dg][dh][di][bh][ea][eb][ec][ed][ee][fe][ge][he][ie]AW[ae][be][ce][de][dd][dc][db][da][ef][eg][eh][ei][ff][gf][hf][if]CR[aa][ba][ca][fa][ga][ha][ia][ab][bb][cb][fb][gb][hb][ib][ac][bc][cc][fc][gc][hc][ic][ad][bd][cd][fd][gd][hd][id][ag][bg][cg][fg][gg][hg][ig][ah][ch][fh][gh][hh][ih][ai][bi][ci][fi][gi][hi][ii]
C[Example]TE[1]
)
